Project 1: Wrangling, Exploration, Visualization
…
peru_change %>% distinct(Year) %>% count

## # A tibble: 1 x 1
##       n
##   <int>
## 1   135

When the ID variable is Year, there are 51 unique ID values for diphtheria1, malaria1, tetanus1, andmeasles1" datasets. yellowfever1 has 51 distinct Year values. peru_annual and peru_percapita, have 136 distinct values for Year, while peru_change has only 135 unique values for Year. This and the previously-calculated number of rows per dataset indicate that there is no redundancy, or repeated Year values, within the ID variable of each data set.

semi_join(diphtheria1, malaria1, by = "Year") %>% semi_join(tetanus1, 
    by = "Year") %>% semi_join(measles1, by = "Year")

## # A tibble: 50 x 2
##     Year diphtheria
##    <dbl>      <dbl>
##  1  2019          0
##  2  2018          0
##  3  2017          0
##  4  2016          0
##  5  2015          0
##  6  2014          0
##  7  2013          1
##  8  2012          0
##  9  2011          0
## 10  2010          0
## #  with 40 more rows

semi_join(peru_annual, peru_percapita, by = "Year")

## # A tibble: 136 x 2
##     Year `Annual CO2 emissions`
##    <dbl>                  <dbl>
##  1  1884                   3664
##  2  1885                   3664
##  3  1886                   7328
##  4  1887                   7328
##  5  1888                   7328
##  6  1889                   7328
##  7  1890                  10992
##  8  1891                  47632
##  9  1892                  65952
## 10  1893                  47632
## #  with 126 more rows

semi_join(diphtheria1, peru_annual, by = "Year")

## # A tibble: 50 x 2
##     Year diphtheria
##    <dbl>      <dbl>
##  1  2019          0
##  2  2018          0
##  3  2017          0
##  4  2016          0
##  5  2015          0
##  6  2014          0
##  7  2013          1
##  8  2012          0
##  9  2011          0
## 10  2010          0
## #  with 40 more rows

semi_join(diphtheria1, yellowfever1, by = "Year")

## # A tibble: 50 x 2
##     Year diphtheria
##    <dbl>      <dbl>
##  1  2019          0
##  2  2018          0
##  3  2017          0
##  4  2016          0
##  5  2015          0
##  6  2014          0
##  7  2013          1
##  8  2012          0
##  9  2011          0
## 10  2010          0
## #  with 40 more rows

semi_join(diphtheria1, peru_change, by = "Year")

## # A tibble: 50 x 2
##     Year diphtheria
##    <dbl>      <dbl>
##  1  2019          0
##  2  2018          0
##  3  2017          0
##  4  2016          0
##  5  2015          0
##  6  2014          0
##  7  2013          1
##  8  2012          0
##  9  2011          0
## 10  2010          0
## #  with 40 more rows

semi_join(peru_annual, yellowfever1, by = "Year")

## # A tibble: 51 x 2
##     Year `Annual CO2 emissions`
##    <dbl>                  <dbl>
##  1  1969               15285267
##  2  1970               17765823
##  3  1971               18592610
##  4  1972               18152217
##  5  1973               19732093
##  6  1974               21335102
##  7  1975               21939664
##  8  1976               22410253
##  9  1977               23302798
## 10  1978               22416853
## #  with 41 more rows

semi_join(peru_annual, peru_change, by = "Year")

## # A tibble: 135 x 2
##     Year `Annual CO2 emissions`
##    <dbl>                  <dbl>
##  1  1885                   3664
##  2  1886                   7328
##  3  1887                   7328
##  4  1888                   7328
##  5  1889                   7328
##  6  1890                  10992
##  7  1891                  47632
##  8  1892                  65952
##  9  1893                  47632
## 10  1894                  40304
## #  with 125 more rows

semi_join(yellowfever1, peru_change, by = "Year")

## # A tibble: 51 x 2
##     Year yellow_fever
##    <dbl>        <dbl>
##  1  2019            4
##  2  2018           10
##  3  2017            9
##  4  2016           62
##  5  2015           24
##  6  2014           17
##  7  2013           21
##  8  2012            9
##  9  2011           13
## 10  2010           18
## #  with 41 more rows
…
anti_join(yellowfever1, diphtheria1, by = "Year")

## # A tibble: 1 x 2
##    Year yellow_fever
##   <dbl>        <dbl>
## 1  1969           28

anti_join(peru_change, diphtheria1, by = "Year")

## # A tibble: 85 x 2
##     Year `Annual CO2 emissions growth (abs)`
##    <dbl>                               <dbl>
##  1  1885                                   0
##  2  1886                                3664
##  3  1887                                   0
##  4  1888                                   0
##  5  1889                                   0
##  6  1890                                3664
##  7  1891                               36640
##  8  1892                               18320
##  9  1893                              -18320
## 10  1894                               -7328
## #  with 75 more rows

anti_join(peru_annual, diphtheria1, by = "Year")

## # A tibble: 86 x 2
##     Year `Annual CO2 emissions`
##    <dbl>                  <dbl>
##  1  1884                   3664
##  2  1885                   3664
##  3  1886                   7328
##  4  1887                   7328
##  5  1888                   7328
##  6  1889                   7328
##  7  1890                  10992
##  8  1891                  47632
##  9  1892                  65952
## 10  1893                  47632
## #  with 76 more rows

anti_join(peru_annual, yellowfever1, by = "Year")

## # A tibble: 85 x 2
##     Year `Annual CO2 emissions`
##    <dbl>                  <dbl>
##  1  1884                   3664
##  2  1885                   3664
##  3  1886                   7328
##  4  1887                   7328
##  5  1888                   7328
##  6  1889                   7328
##  7  1890                  10992
##  8  1891                  47632
##  9  1892                  65952
## 10  1893                  47632
## #  with 75 more rows

anti_join(peru_change, yellowfever1, by = "Year")

## # A tibble: 84 x 2
##     Year `Annual CO2 emissions growth (abs)`
##    <dbl>                               <dbl>
##  1  1885                                   0
##  2  1886                                3664
##  3  1887                                   0
##  4  1888                                   0
##  5  1889                                   0
##  6  1890                                3664
##  7  1891                               36640
##  8  1892                               18320
##  9  1893                              -18320
## 10  1894                               -7328
## #  with 74 more rows
…
